Lab 10 practice — Diamonds (solutions) – STAT 109 - Introductory Biostatistics
…
(b) Joint proportions (denominator = \(N\) for all cells):

Code

d |>
  count(cut, color) |>
  mutate(prop_joint = n / sum(n))

# A tibble: 35 × 4
   cut   color     n prop_joint
   <ord> <ord> <int>      <dbl>
 1 Fair  D       163    0.00302
 2 Fair  E       224    0.00415
 3 Fair  F       312    0.00578
 4 Fair  G       314    0.00582
 5 Fair  H       303    0.00562
 6 Fair  I       175    0.00324
 7 Fair  J       119    0.00221
 8 Good  D       662    0.0123 
 9 Good  E       933    0.0173 
10 Good  F       909    0.0169 
# ℹ 25 more rows

(c) Row proportions (within each cut):

Code

d |>
  count(cut, color) |>
  group_by(cut) |>
  mutate(prop_row = n / sum(n)) |>
  ungroup()

# A tibble: 35 × 4
   cut   color     n prop_row
   <ord> <ord> <int>    <dbl>
 1 Fair  D       163   0.101 
 2 Fair  E       224   0.139 
 3 Fair  F       312   0.194 
 4 Fair  G       314   0.195 
 5 Fair  H       303   0.188 
 6 Fair  I       175   0.109 
 7 Fair  J       119   0.0739
 8 Good  D       662   0.135 
 9 Good  E       933   0.190 
10 Good  F       909   0.185 
# ℹ 25 more rows

(d) Column proportions (within each color):

Code

d |>
  count(cut, color) |>
  group_by(color) |>
  mutate(prop_col = n / sum(n)) |>
  ungroup()

# A tibble: 35 × 4
   cut   color     n prop_col
   <ord> <ord> <int>    <dbl>
 1 Fair  D       163   0.0241
 2 Fair  E       224   0.0229
 3 Fair  F       312   0.0327
 4 Fair  G       314   0.0278
 5 Fair  H       303   0.0365
 6 Fair  I       175   0.0323
 7 Fair  J       119   0.0424
 8 Good  D       662   0.0977
 9 Good  E       933   0.0952
10 Good  F       909   0.0953
# ℹ 25 more rows
…
